  ,---.            ,--.  ,--.                     ,--.  ,--.                ,--.  ,--.                
 /  O  \ ,--.,--.,-'  '-.|  ,---. ,---. ,--,--, ,-'  '-.`--' ,---. ,--,--.,-'  '-.`--' ,---. ,--,--,  
|  .-.  ||  ||  |'-.  .-'|  .-.  | .-. :|      \'-.  .-',--.| .--'' ,-.  |'-.  .-',--.| .-. ||      \ 
|  | |  |'  ''  '  |  |  |  | |  \   --.|  ||  |  |  |  |  |\ `--.\ '-'  |  |  |  |  |' '-' '|  ||  | 
`--' `--' `----'   `--'  `--' `--'`----'`--''--'  `--'  `--' `---' `--`--'  `--'  `--' `---' `--''--'                                                                                                                              
 :: Kafka Service ::        														 (USP CONTROLLER)
